[gd_scene load_steps=2 format=2]

[ext_resource path="res://Assets/Mountains/Background.png" type="Texture" id=1]

[node name="Node2D" type="Node2D"]
scale = Vector2( 97.0805, 27.911 )

[node name="static" type="Sprite" parent="."]
position = Vector2( 59.7957, 3.9411 )
scale = Vector2( 0.15386, 0.106365 )
texture = ExtResource( 1 )
