[gd_scene load_steps=7 format=2]

[ext_resource path="res://Script/CanvasLayer.gd" type="Script" id=1]
[ext_resource path="res://Assets/rip_buff_icon/mov_speed.PNG" type="Texture" id=2]
[ext_resource path="res://Assets/rip_buff_icon/no_wall.PNG" type="Texture" id=3]
[ext_resource path="res://Assets/rip_buff_icon/shoot_speed.PNG" type="Texture" id=4]
[ext_resource path="res://Assets/octavius.ttf" type="DynamicFontData" id=5]

[sub_resource type="DynamicFont" id=1]
size = 36
font_data = ExtResource( 5 )

[node name="CanvasLayer" type="CanvasLayer"]
script = ExtResource( 1 )

[node name="buff1" type="Sprite" parent="."]
position = Vector2( 290.344, 74.9493 )
scale = Vector2( 0.6, 0.6 )
texture = ExtResource( 2 )

[node name="buff2" type="Sprite" parent="."]
position = Vector2( 340.344, 74.9493 )
scale = Vector2( 0.6, 0.6 )
texture = ExtResource( 3 )

[node name="buff3" type="Sprite" parent="."]
position = Vector2( 390.344, 74.9493 )
scale = Vector2( 0.6, 0.6 )
texture = ExtResource( 4 )

[node name="Label" type="Label" parent="."]
margin_left = 150.309
margin_top = 54.9745
margin_right = 203.309
margin_bottom = 95.9745
custom_fonts/font = SubResource( 1 )
custom_colors/font_color = Color( 0, 0, 0, 1 )
text = "Buff :"
