[gd_scene load_steps=13 format=2]

[ext_resource path="res://Script/stage.gd" type="Script" id=1]
[ext_resource path="res://Scenes/Player.tscn" type="PackedScene" id=2]
[ext_resource path="res://Assets/tileset.png" type="Texture" id=3]
[ext_resource path="res://Scenes/background.tscn" type="PackedScene" id=4]
[ext_resource path="res://Scenes/CanvasLayer.tscn" type="PackedScene" id=5]
[ext_resource path="res://Scenes/Pitfall.tscn" type="PackedScene" id=6]
[ext_resource path="res://Scenes/WinArea.tscn" type="PackedScene" id=7]
[ext_resource path="res://Scenes/EnemyFrog.tscn" type="PackedScene" id=8]

[sub_resource type="ConvexPolygonShape2D" id=1]
points = PoolVector2Array( 0, 0, 64, 0, 64, 64, 0, 64 )

[sub_resource type="ConvexPolygonShape2D" id=2]
points = PoolVector2Array( 0, 0, 64, 0, 64, 40, 0, 40 )

[sub_resource type="ConvexPolygonShape2D" id=3]
points = PoolVector2Array( 0, 0, 64, 0, 64, 64, 0, 64 )

[sub_resource type="TileSet" id=4]
0/name = "tileset.png 0"
0/texture = ExtResource( 3 )
0/tex_offset = Vector2( 0, 0 )
0/modulate = Color( 1, 1, 1, 1 )
0/region = Rect2( 288, 152, 64, 64 )
0/tile_mode = 0
0/occluder_offset = Vector2( 0, 0 )
0/navigation_offset = Vector2( 0, 0 )
0/shapes = [ {
"autotile_coord": Vector2( 0, 0 ),
"one_way": false,
"one_way_margin": 1.0,
"shape": SubResource( 1 ),
"shape_transform": Transform2D( 1, 0, 0, 1, 0, 0 )
} ]
0/z_index = 0
1/name = "tileset.png 1"
1/texture = ExtResource( 3 )
1/tex_offset = Vector2( 0, 0 )
1/modulate = Color( 1, 1, 1, 1 )
1/region = Rect2( 288, 216, 64, 40 )
1/tile_mode = 0
1/occluder_offset = Vector2( 0, 0 )
1/navigation_offset = Vector2( 0, 0 )
1/shapes = [ {
"autotile_coord": Vector2( 0, 0 ),
"one_way": false,
"one_way_margin": 1.0,
"shape": SubResource( 2 ),
"shape_transform": Transform2D( 1, 0, 0, 1, 0, 0 )
} ]
1/z_index = 0
2/name = "tileset.png 2"
2/texture = ExtResource( 3 )
2/tex_offset = Vector2( 0, 0 )
2/modulate = Color( 1, 1, 1, 1 )
2/region = Rect2( 288, 184, 64, 64 )
2/tile_mode = 0
2/occluder_offset = Vector2( 0, 0 )
2/navigation_offset = Vector2( 0, 0 )
2/shapes = [ {
"autotile_coord": Vector2( 0, 0 ),
"one_way": false,
"one_way_margin": 1.0,
"shape": SubResource( 3 ),
"shape_transform": Transform2D( 1, 0, 0, 1, 0, 0 )
} ]
2/z_index = 0
3/name = "tileset.png 3"
3/texture = ExtResource( 3 )
3/tex_offset = Vector2( 0, 0 )
3/modulate = Color( 1, 1, 1, 1 )
3/region = Rect2( 176, 88, 80, 72 )
3/tile_mode = 0
3/occluder_offset = Vector2( 0, 0 )
3/navigation_offset = Vector2( 0, 0 )
3/shapes = [  ]
3/z_index = 0
4/name = "tileset.png 4"
4/texture = ExtResource( 3 )
4/tex_offset = Vector2( 0, 0 )
4/modulate = Color( 1, 1, 1, 1 )
4/region = Rect2( 24, 32, 56, 120 )
4/tile_mode = 0
4/occluder_offset = Vector2( 0, 0 )
4/navigation_offset = Vector2( 0, 0 )
4/shapes = [  ]
4/z_index = 0

[node name="Node2D" type="Node2D"]
position = Vector2( 3.30927, 1.84554 )
script = ExtResource( 1 )

[node name="Player" parent="." instance=ExtResource( 2 )]
position = Vector2( -710.858, 70.9626 )

[node name="TileMap" type="TileMap" parent="."]
tile_set = SubResource( 4 )
cell_size = Vector2( 16, 32 )
format = 1
tile_data = PoolIntArray( -917329, 3, 0, -917312, 3, 0, -786259, 0, 0, -786258, 0, 0, -786257, 0, 0, -786256, 0, 0, -786255, 0, 0, -786254, 0, 0, -786253, 0, 0, -786252, 0, 0, -786251, 0, 0, -786250, 0, 0, -786249, 0, 0, -786248, 0, 0, -786247, 0, 0, -786246, 0, 0, -786245, 0, 0, -786244, 0, 0, -786243, 0, 0, -786242, 0, 0, -786241, 0, 0, -786240, 0, 0, -786239, 0, 0, -786238, 0, 0, -786236, 0, 0, -720723, 1, 0, -720722, 1, 0, -720721, 1, 0, -720720, 1, 0, -720719, 1, 0, -720718, 1, 0, -720717, 1, 0, -720716, 1, 0, -720715, 1, 0, -720714, 1, 0, -720713, 1, 0, -720712, 1, 0, -720711, 1, 0, -720710, 1, 0, -720709, 1, 0, -720708, 1, 0, -720707, 1, 0, -720706, 1, 0, -720705, 1, 0, -720704, 1, 0, -720703, 1, 0, -720702, 1, 0, -720701, 1, 0, -720700, 1, 0, -720699, 1, 0, -720698, 1, 0, -524314, 2, 0, -524299, 2, 0, -458807, 2, 0, -458778, 2, 0, -458763, 2, 0, -393271, 2, 0, -393242, 2, 0, -393227, 2, 0, -458543, 3, 0, -327735, 2, 0, -327706, 2, 0, -262199, 2, 0, -262170, 2, 0, -262155, 2, 0, -327471, 0, 0, -196663, 2, 0, -196634, 2, 0, -196619, 2, 0, -131127, 2, 0, -131098, 2, 0, -196529, 3, 0, -196517, 3, 0, -196403, 0, 0, -196399, 2, 0, -65591, 2, 0, -65562, 2, 0, -65547, 2, 0, -131019, 2, 0, -55, 2, 0, -65463, 2, 0, -65460, 2, 0, -65457, 2, 0, -65454, 2, 0, -65451, 2, 0, -65450, 2, 0, -65449, 2, 0, -65448, 2, 0, -65447, 2, 0, -65446, 2, 0, -65445, 2, 0, -65444, 2, 0, -65443, 2, 0, -65376, 2, 0, -65349, 3, 0, -65335, 0, 0, -65331, 2, 0, -65330, 2, 0, -65329, 2, 0, -65327, 2, 0, 65481, 2, 0, 53, 2, 0, 83, 2, 0, 93, 2, 0, 160, 2, 0, 205, 2, 0, 131017, 2, 0, 65609, 2, 0, 65696, 2, 0, 65717, 0, 0, 65718, 0, 0, 65719, 0, 0, 65720, 0, 0, 65721, 0, 0, 65722, 0, 0, 65723, 0, 0, 65724, 0, 0, 65725, 0, 0, 65726, 0, 0, 65727, 0, 0, 65728, 0, 0, 65729, 0, 0, 65730, 0, 0, 65731, 0, 0, 65732, 0, 0, 65733, 0, 0, 65737, 2, 0, 65741, 2, 0, 65745, 2, 0, 196553, 2, 0, 196568, 3, 0, 196594, 3, 0, 131081, 3, 0, 131110, 3, 0, 131125, 2, 0, 131135, 3, 0, 131145, 2, 0, 131155, 2, 0, 131165, 2, 0, 131193, 3, 0, 131215, 3, 0, 196768, 2, 0, 327625, 0, 0, 327626, 0, 0, 327627, 0, 0, 327628, 0, 0, 327629, 0, 0, 327630, 0, 0, 327631, 0, 0, 327632, 0, 0, 327633, 0, 0, 327634, 0, 0, 327635, 0, 0, 327636, 0, 0, 327637, 0, 0, 327638, 0, 0, 327639, 0, 0, 327640, 0, 0, 327641, 0, 0, 327642, 0, 0, 327643, 0, 0, 327644, 0, 0, 327645, 0, 0, 327646, 0, 0, 327647, 0, 0, 327648, 0, 0, 327649, 0, 0, 327650, 0, 0, 327651, 0, 0, 327652, 0, 0, 327653, 0, 0, 327654, 0, 0, 327655, 0, 0, 327656, 0, 0, 327657, 0, 0, 327658, 0, 0, 327659, 0, 0, 327660, 0, 0, 327661, 0, 0, 327662, 0, 0, 327663, 0, 0, 327664, 0, 0, 327665, 0, 0, 327666, 0, 0, 327667, 0, 0, 327670, 0, 0, 327671, 0, 0, 327672, 0, 0, 327673, 0, 0, 327674, 0, 0, 327675, 0, 0, 327676, 0, 0, 327677, 0, 0, 327678, 0, 0, 327679, 0, 0, 262144, 0, 0, 262145, 0, 0, 262146, 0, 0, 262147, 0, 0, 262148, 0, 0, 262149, 0, 0, 262150, 0, 0, 262151, 0, 0, 262152, 0, 0, 262153, 0, 0, 262154, 0, 0, 262155, 0, 0, 262156, 0, 0, 262157, 0, 0, 262158, 0, 0, 262159, 0, 0, 262160, 0, 0, 262161, 0, 0, 262162, 0, 0, 262163, 0, 0, 262164, 0, 0, 262165, 0, 0, 262166, 0, 0, 262167, 0, 0, 262168, 0, 0, 262169, 0, 0, 262170, 0, 0, 262171, 0, 0, 262172, 0, 0, 262173, 0, 0, 262174, 0, 0, 262175, 0, 0, 262176, 0, 0, 262177, 0, 0, 262178, 0, 0, 262179, 0, 0, 262180, 0, 0, 262181, 0, 0, 262182, 0, 0, 262183, 0, 0, 262184, 0, 0, 262185, 0, 0, 262186, 0, 0, 262189, 0, 0, 262190, 0, 0, 262191, 0, 0, 262192, 0, 0, 262193, 0, 0, 262194, 0, 0, 262195, 0, 0, 262196, 0, 0, 262197, 0, 0, 262198, 0, 0, 262199, 0, 0, 262200, 0, 0, 262201, 0, 0, 262202, 0, 0, 262205, 0, 0, 262206, 0, 0, 262207, 0, 0, 262208, 0, 0, 262209, 0, 0, 262210, 0, 0, 262211, 0, 0, 262212, 0, 0, 262213, 0, 0, 262214, 0, 0, 262215, 0, 0, 262216, 0, 0, 262217, 0, 0, 262218, 0, 0, 262221, 0, 0, 262222, 0, 0, 262223, 0, 0, 262224, 0, 0, 262225, 0, 0, 262226, 0, 0, 262227, 0, 0, 262228, 0, 0, 262229, 0, 0, 262230, 0, 0, 262231, 0, 0, 262232, 0, 0, 262233, 0, 0, 262234, 0, 0, 262235, 0, 0, 262236, 0, 0, 262237, 0, 0, 262238, 0, 0, 262239, 0, 0, 262240, 0, 0, 262241, 0, 0, 262242, 0, 0, 262243, 0, 0, 262244, 0, 0, 262245, 0, 0, 262246, 0, 0, 262247, 0, 0, 262248, 0, 0, 262249, 0, 0, 262250, 0, 0, 262251, 0, 0, 262252, 0, 0, 262253, 0, 0, 262254, 0, 0, 262255, 0, 0, 262258, 0, 0, 262259, 0, 0, 262260, 0, 0, 262261, 0, 0, 262262, 0, 0, 262263, 0, 0, 262264, 0, 0, 262265, 0, 0, 262266, 0, 0, 262267, 0, 0, 262268, 0, 0, 262269, 0, 0, 262270, 0, 0, 262271, 0, 0, 262272, 0, 0, 262273, 0, 0, 262274, 0, 0, 262275, 0, 0, 262276, 0, 0, 262277, 0, 0, 262278, 0, 0, 262279, 0, 0, 262280, 0, 0, 262281, 0, 0, 262282, 0, 0, 262283, 0, 0, 262284, 0, 0, 262285, 0, 0, 262286, 0, 0, 262287, 0, 0, 262288, 0, 0, 262289, 0, 0, 262304, 2, 0 )

[node name="Node2D" parent="." instance=ExtResource( 4 )]
show_behind_parent = true
position = Vector2( -522.066, -516.496 )
scale = Vector2( 78.774, 63.5033 )
z_as_relative = false

[node name="CanvasLayer" parent="." instance=ExtResource( 5 )]

[node name="Pitfall" parent="." instance=ExtResource( 6 )]
position = Vector2( 1430.86, 356.49 )

[node name="WinArea" parent="." instance=ExtResource( 7 )]
position = Vector2( 2989.96, -456.208 )
sceneName = "eps2"

[node name="EnemyFrog" parent="." instance=ExtResource( 8 )]
position = Vector2( -384.382, 100.773 )
scale = Vector2( 3, 3 )
health = 1
reset_health = 1

[node name="EnemyFrog2" parent="." instance=ExtResource( 8 )]
position = Vector2( 1274.8, 107.763 )
scale = Vector2( 3, 3 )
health = 1
state = "orange"

[node name="EnemyFrog3" parent="." instance=ExtResource( 8 )]
position = Vector2( 1448.1, 106.725 )
scale = Vector2( 3, 3 )
health = 1
state = "orange"

[node name="EnemyFrog4" parent="." instance=ExtResource( 8 )]
position = Vector2( 2334.52, 102.745 )
scale = Vector2( 3, 3 )
health = 4
reset_health = 3

[node name="EnemyFrog5" parent="." instance=ExtResource( 8 )]
position = Vector2( -142.511, 103.389 )
scale = Vector2( 3, 3 )
health = 7
state = "orange"
