[gd_scene load_steps=2 format=2]

[ext_resource path="res://Scenes/eps1.tscn" type="PackedScene" id=1]

[node name="Node2D" index="0" instance=ExtResource( 1 )]

[node name="Player" parent="." index="0"]
position = Vector2( -816.974, 55.2321 )

[node name="TileMap" parent="." index="1"]
tile_data = PoolIntArray( -917384, 3, 0, -917383, 3, 0, -917372, 3, 0, -917321, 3, 0, -917315, 3, 0, -786316, 0, 0, -786313, 0, 0, -786312, 0, 0, -786311, 0, 0, -786310, 0, 0, -786309, 0, 0, -786308, 0, 0, -786305, 0, 0, -786304, 0, 0, -786303, 0, 0, -786302, 0, 0, -786301, 0, 0, -786300, 0, 0, -786299, 0, 0, -786298, 0, 0, -786297, 0, 0, -786294, 0, 0, -786293, 0, 0, -786292, 0, 0, -786291, 0, 0, -786259, 0, 0, -786258, 0, 0, -786257, 0, 0, -786256, 0, 0, -786255, 0, 0, -786254, 0, 0, -786253, 0, 0, -786252, 0, 0, -786251, 0, 0, -786250, 0, 0, -786249, 0, 0, -786248, 0, 0, -786247, 0, 0, -786246, 0, 0, -786245, 0, 0, -786244, 0, 0, -786243, 0, 0, -786242, 0, 0, -786241, 0, 0, -786240, 0, 0, -786239, 0, 0, -786238, 0, 0, -786236, 0, 0, -720780, 2, 0, -720723, 1, 0, -720722, 1, 0, -720721, 1, 0, -720720, 1, 0, -720719, 1, 0, -720718, 1, 0, -720717, 1, 0, -720716, 1, 0, -720715, 1, 0, -720714, 1, 0, -720713, 1, 0, -720712, 1, 0, -720711, 1, 0, -720710, 1, 0, -720709, 1, 0, -720708, 1, 0, -720707, 1, 0, -720706, 1, 0, -720705, 1, 0, -720704, 1, 0, -720703, 1, 0, -720702, 1, 0, -720701, 1, 0, -720700, 1, 0, -720699, 1, 0, -720698, 1, 0, -589836, 3, 0, -655359, 3, 0, -655244, 2, 0, -655203, 0, 0, -589708, 2, 0, -458812, 2, 0, -458771, 0, 0, -458770, 0, 0, -458769, 0, 0, -458768, 0, 0, -458767, 0, 0, -458766, 0, 0, -458765, 0, 0, -458764, 0, 0, -458763, 0, 0, -458762, 0, 0, -458761, 0, 0, -458760, 0, 0, -458759, 0, 0, -458758, 0, 0, -458757, 0, 0, -458756, 0, 0, -458755, 0, 0, -458754, 0, 0, -458753, 0, 0, -524288, 0, 0, -524287, 0, 0, -524286, 0, 0, -524285, 0, 0, -524284, 0, 0, -524283, 0, 0, -524282, 0, 0, -524281, 0, 0, -524280, 0, 0, -524279, 0, 0, -524278, 0, 0, -524179, 3, 0, -524172, 2, 0, -393276, 2, 0, -327740, 2, 0, -393142, 3, 0, -393117, 0, 0, -393115, 0, 0, -393112, 0, 0, -393109, 0, 0, -393107, 0, 0, -393104, 0, 0, -393100, 2, 0, -262204, 2, 0, -327661, 0, 0, -327564, 2, 0, -196668, 2, 0, -262110, 0, 0, -262075, 0, 0, -262074, 0, 0, -262073, 0, 0, -262072, 0, 0, -262071, 0, 0, -262070, 0, 0, -262069, 0, 0, -262068, 0, 0, -262067, 0, 0, -262066, 0, 0, -262065, 0, 0, -262064, 0, 0, -262063, 0, 0, -262062, 0, 0, -262061, 0, 0, -262060, 0, 0, -262059, 0, 0, -262028, 2, 0, -131132, 2, 0, -196589, 2, 0, -196492, 2, 0, -65596, 2, 0, -65568, 2, 0, -131053, 2, 0, -131022, 0, 0, -130956, 2, 0, -60, 2, 0, -65517, 2, 0, 65476, 2, 0, 65504, 2, 0, 50, 2, 0, 131012, 2, 0, 65586, 2, 0, 196548, 2, 0, 196560, 3, 0, 196564, 3, 0, 196576, 2, 0, 262084, 2, 0, 327620, 2, 0, 327624, 0, 0, 327625, 0, 0, 327626, 0, 0, 327627, 0, 0, 327628, 0, 0, 327629, 0, 0, 327630, 0, 0, 327631, 0, 0, 327632, 0, 0, 327633, 0, 0, 327634, 0, 0, 327635, 0, 0, 327636, 0, 0, 327637, 0, 0, 327638, 0, 0, 327639, 0, 0, 327640, 0, 0, 327641, 0, 0, 327642, 0, 0, 327643, 0, 0, 327644, 0, 0, 327645, 0, 0, 327646, 0, 0, 327647, 0, 0, 327648, 0, 0 )

[node name="WinArea" parent="." index="5"]
sceneName = "WinScene"

[node name="EnemyFrog" parent="." index="6"]
position = Vector2( -480.439, -90.6127 )

[node name="EnemyFrog2" parent="." index="7"]
position = Vector2( -276.97, -285.733 )

[node name="EnemyFrog3" parent="." index="8"]
position = Vector2( 1129.18, -153.49 )

[node name="EnemyFrog4" parent="." index="9"]
position = Vector2( 1967.92, -408.586 )

[node name="EnemyFrog5" parent="." index="10"]
position = Vector2( 2795.63, -410.694 )
